%YAML 1.1
%TAG !u! tag:unity3d.com,2011:
--- !u!74 &7400000
AnimationClip:
  m_ObjectHideFlags: 0
  m_CorrespondingSourceObject: {fileID: 0}
  m_PrefabInstance: {fileID: 0}
  m_PrefabAsset: {fileID: 0}
  m_Name: SlidderAnim
  serializedVersion: 6
  m_Legacy: 0
  m_Compressed: 0
  m_UseHighQualityCurve: 1
  m_RotationCurves: []
  m_CompressedRotationCurves: []
  m_EulerCurves: []
  m_PositionCurves: []
  m_ScaleCurves: []
  m_FloatCurves: []
  m_PPtrCurves:
  - curve:
    - time: 0
      value: {fileID: 21300000, guid: ec15769e18cdc8544a447c0ac2e8041d, type: 3}
    - time: 0.083333336
      value: {fileID: 21300000, guid: 0de12e721eede1d489e3517c129059ae, type: 3}
    - time: 0.16666667
      value: {fileID: 21300000, guid: 88e14c9494637dd49875dea2161ea148, type: 3}
    - time: 0.25
      value: {fileID: 21300000, guid: 5ff8755dc5cf0a04582ecc6e28236e1c, type: 3}
    - time: 0.33333334
      value: {fileID: 21300000, guid: 6acb3fc4ea3b24f45bd1f3da65dda977, type: 3}
    - time: 0.41666666
      value: {fileID: 21300000, guid: 253103749f1737c49824170a20fc4b1a, type: 3}
    - time: 0.5
      value: {fileID: 21300000, guid: 3966c67fff0284b42ab7c5d3554dee4b, type: 3}
    - time: 0.5833333
      value: {fileID: 21300000, guid: d90230faeaa0de44083383c02e2cf96c, type: 3}
    attribute: m_Sprite
    path: 
    classID: 212
    script: {fileID: 0}
  m_SampleRate: 12
  m_WrapMode: 0
  m_Bounds:
    m_Center: {x: 0, y: 0, z: 0}
    m_Extent: {x: 0, y: 0, z: 0}
  m_ClipBindingConstant:
    genericBindings:
    - serializedVersion: 2
      path: 0
      attribute: 0
      script: {fileID: 0}
      typeID: 212
      customType: 23
      isPPtrCurve: 1
    pptrCurveMapping:
    - {fileID: 21300000, guid: ec15769e18cdc8544a447c0ac2e8041d, type: 3}
    - {fileID: 21300000, guid: 0de12e721eede1d489e3517c129059ae, type: 3}
    - {fileID: 21300000, guid: 88e14c9494637dd49875dea2161ea148, type: 3}
    - {fileID: 21300000, guid: 5ff8755dc5cf0a04582ecc6e28236e1c, type: 3}
    - {fileID: 21300000, guid: 6acb3fc4ea3b24f45bd1f3da65dda977, type: 3}
    - {fileID: 21300000, guid: 253103749f1737c49824170a20fc4b1a, type: 3}
    - {fileID: 21300000, guid: 3966c67fff0284b42ab7c5d3554dee4b, type: 3}
    - {fileID: 21300000, guid: d90230faeaa0de44083383c02e2cf96c, type: 3}
  m_AnimationClipSettings:
    serializedVersion: 2
    m_AdditiveReferencePoseClip: {fileID: 0}
    m_AdditiveReferencePoseTime: 0
    m_StartTime: 0
    m_StopTime: 0.6666666
    m_OrientationOffsetY: 0
    m_Level: 0
    m_CycleOffset: 0
    m_HasAdditiveReferencePose: 0
    m_LoopTime: 1
    m_LoopBlend: 0
    m_LoopBlendOrientation: 0
    m_LoopBlendPositionY: 0
    m_LoopBlendPositionXZ: 0
    m_KeepOriginalOrientation: 0
    m_KeepOriginalPositionY: 1
    m_KeepOriginalPositionXZ: 0
    m_HeightFromFeet: 0
    m_Mirror: 0
  m_EditorCurves: []
  m_EulerEditorCurves: []
  m_HasGenericRootTransform: 0
  m_HasMotionFloatCurves: 0
  m_Events: []
